measure;topic1.txt;topic10.txt;topic10b.txt;topic10c.txt;topic11.txt;topic13.txt;topic13b.txt;topic14.txt;topic14b.txt;topic15.txt;topic16.txt;topic17.txt;topic18.txt;topic19.txt;topic1b.txt;topic2.txt;topic2b.txt;topic3.txt;topic4.txt;topic5.txt;topic5b.txt;topic6.txt;topic7.txt;topic9.txt;topic9b.txt;topic9c.txt
runid;groupS_large;groupS_large;groupS_large;groupS_large;groupS_large;groupS_large;groupS_large;groupS_large;groupS_large;groupS_large;groupS_large;groupS_large;groupS_large;groupS_large;groupS_large;groupS_large;groupS_large;groupS_large;groupS_large;groupS_large;groupS_large;groupS_large;groupS_large;groupS_large;groupS_large;groupS_large
num_q;1;1;1;1;1;1;1;1;1;1;1;1;1;1;1;1;1;1;1;1;1;1;1;1;1;1
num_ret;10;10;10;10;10;10;10;10;10;10;10;10;10;10;10;10;10;10;10;10;10;10;10;10;10;10
num_rel;23;2;2;0;17;29;26;15;19;34;8;5;18;3;6;18;12;12;2;8;12;2;21;2;2;28
num_rel_ret;4;2;2;0;3;7;8;6;8;9;4;3;7;2;3;7;4;5;1;5;6;1;8;2;2;1
map;0.1058;1.0000;1.0000;0.0000;0.0487;0.1780;0.2708;0.3321;0.3399;0.2585;0.3667;0.3400;0.3550;0.6667;0.4167;0.2665;0.2000;0.4028;0.5000;0.6042;0.5000;0.5000;0.3697;0.6429;0.6429;0.0119
gm_map;0.1058;1.0000;1.0000;0.0000;0.0487;0.1780;0.2708;0.3321;0.3399;0.2585;0.3667;0.3400;0.3550;0.6667;0.4167;0.2665;0.2000;0.4028;0.5000;0.6042;0.5000;0.5000;0.3697;0.6429;0.6429;0.0119
Rprec;0.1739;1.0000;1.0000;0.0000;0.1765;0.2414;0.3077;0.4000;0.4211;0.2647;0.5000;0.4000;0.3889;0.6667;0.5000;0.3889;0.3333;0.4167;0.5000;0.6250;0.5000;0.5000;0.3810;0.5000;0.5000;0.0357
bpref;0.1626;1.0000;1.0000;0.0000;0.1557;0.2204;0.2954;0.3644;0.3906;0.2647;0.4219;0.3200;0.3765;0.6667;0.4167;0.3519;0.2431;0.4097;0.5000;0.6094;0.5000;0.5000;0.3764;0.5000;0.5000;0.0344
recip_rank;0.5000;1.0000;1.0000;0.0000;0.1667;1.0000;1.0000;1.0000;1.0000;1.0000;1.0000;1.0000;1.0000;1.0000;1.0000;0.5000;1.0000;1.0000;1.0000;1.0000;1.0000;1.0000;1.0000;1.0000;1.0000;0.3333
iprec_at_recall_0.00;0.6667;1.0000;1.0000;0.0000;0.3750;1.0000;1.0000;1.0000;1.0000;1.0000;1.0000;1.0000;1.0000;1.0000;1.0000;0.8000;1.0000;1.0000;1.0000;1.0000;1.0000;1.0000;1.0000;1.0000;1.0000;0.3333
iprec_at_recall_0.10;0.6667;1.0000;1.0000;0.0000;0.3750;0.7000;1.0000;1.0000;1.0000;1.0000;1.0000;1.0000;1.0000;1.0000;1.0000;0.8000;0.6667;1.0000;1.0000;1.0000;1.0000;1.0000;1.0000;1.0000;1.0000;0.0000
iprec_at_recall_0.20;0.0000;1.0000;1.0000;0.0000;0.0000;0.7000;0.8000;1.0000;0.8000;1.0000;0.6667;1.0000;1.0000;1.0000;1.0000;0.8000;0.4000;1.0000;1.0000;1.0000;1.0000;1.0000;1.0000;1.0000;1.0000;0.0000
iprec_at_recall_0.30;0.0000;1.0000;1.0000;0.0000;0.0000;0.0000;0.8000;0.7143;0.8000;0.0000;0.6667;0.4000;0.8571;1.0000;1.0000;0.7000;0.4000;1.0000;1.0000;1.0000;1.0000;1.0000;0.8889;1.0000;1.0000;0.0000
iprec_at_recall_0.40;0.0000;1.0000;1.0000;0.0000;0.0000;0.0000;0.0000;0.6000;0.8000;0.0000;0.6667;0.4000;0.0000;1.0000;0.5000;0.0000;0.0000;0.8333;1.0000;1.0000;1.0000;1.0000;0.0000;1.0000;1.0000;0.0000
iprec_at_recall_0.50;0.0000;1.0000;1.0000;0.0000;0.0000;0.0000;0.0000;0.0000;0.0000;0.0000;0.6667;0.3000;0.0000;1.0000;0.5000;0.0000;0.0000;0.0000;1.0000;1.0000;1.0000;1.0000;0.0000;1.0000;1.0000;0.0000
iprec_at_recall_0.60;0.0000;1.0000;1.0000;0.0000;0.0000;0.0000;0.0000;0.0000;0.0000;0.0000;0.0000;0.3000;0.0000;1.0000;0.0000;0.0000;0.0000;0.0000;0.0000;0.8333;0.0000;0.0000;0.0000;0.2857;0.2857;0.0000
iprec_at_recall_0.70;0.0000;1.0000;1.0000;0.0000;0.0000;0.0000;0.0000;0.0000;0.0000;0.0000;0.0000;0.0000;0.0000;1.0000;0.0000;0.0000;0.0000;0.0000;0.0000;0.0000;0.0000;0.0000;0.0000;0.2857;0.2857;0.0000
iprec_at_recall_0.80;0.0000;1.0000;1.0000;0.0000;0.0000;0.0000;0.0000;0.0000;0.0000;0.0000;0.0000;0.0000;0.0000;0.0000;0.0000;0.0000;0.0000;0.0000;0.0000;0.0000;0.0000;0.0000;0.0000;0.2857;0.2857;0.0000
iprec_at_recall_0.90;0.0000;1.0000;1.0000;0.0000;0.0000;0.0000;0.0000;0.0000;0.0000;0.0000;0.0000;0.0000;0.0000;0.0000;0.0000;0.0000;0.0000;0.0000;0.0000;0.0000;0.0000;0.0000;0.0000;0.2857;0.2857;0.0000
iprec_at_recall_1.00;0.0000;1.0000;1.0000;0.0000;0.0000;0.0000;0.0000;0.0000;0.0000;0.0000;0.0000;0.0000;0.0000;0.0000;0.0000;0.0000;0.0000;0.0000;0.0000;0.0000;0.0000;0.0000;0.0000;0.2857;0.2857;0.0000
P_5;0.6000;0.4000;0.4000;0.0000;0.0000;0.6000;0.8000;0.6000;0.6000;1.0000;0.6000;0.4000;0.8000;0.4000;0.4000;0.8000;0.4000;0.8000;0.2000;0.8000;1.0000;0.2000;1.0000;0.2000;0.2000;0.2000
P_10;0.4000;0.2000;0.2000;0.0000;0.3000;0.7000;0.8000;0.6000;0.8000;0.9000;0.4000;0.3000;0.7000;0.2000;0.3000;0.7000;0.4000;0.5000;0.1000;0.5000;0.6000;0.1000;0.8000;0.2000;0.2000;0.1000
P_15;0.2667;0.1333;0.1333;0.0000;0.2000;0.4667;0.5333;0.4000;0.5333;0.6000;0.2667;0.2000;0.4667;0.1333;0.2000;0.4667;0.2667;0.3333;0.0667;0.3333;0.4000;0.0667;0.5333;0.1333;0.1333;0.0667
P_20;0.2000;0.1000;0.1000;0.0000;0.1500;0.3500;0.4000;0.3000;0.4000;0.4500;0.2000;0.1500;0.3500;0.1000;0.1500;0.3500;0.2000;0.2500;0.0500;0.2500;0.3000;0.0500;0.4000;0.1000;0.1000;0.0500
P_30;0.1333;0.0667;0.0667;0.0000;0.1000;0.2333;0.2667;0.2000;0.2667;0.3000;0.1333;0.1000;0.2333;0.0667;0.1000;0.2333;0.1333;0.1667;0.0333;0.1667;0.2000;0.0333;0.2667;0.0667;0.0667;0.0333
P_100;0.0400;0.0200;0.0200;0.0000;0.0300;0.0700;0.0800;0.0600;0.0800;0.0900;0.0400;0.0300;0.0700;0.0200;0.0300;0.0700;0.0400;0.0500;0.0100;0.0500;0.0600;0.0100;0.0800;0.0200;0.0200;0.0100
P_200;0.0200;0.0100;0.0100;0.0000;0.0150;0.0350;0.0400;0.0300;0.0400;0.0450;0.0200;0.0150;0.0350;0.0100;0.0150;0.0350;0.0200;0.0250;0.0050;0.0250;0.0300;0.0050;0.0400;0.0100;0.0100;0.0050
P_500;0.0080;0.0040;0.0040;0.0000;0.0060;0.0140;0.0160;0.0120;0.0160;0.0180;0.0080;0.0060;0.0140;0.0040;0.0060;0.0140;0.0080;0.0100;0.0020;0.0100;0.0120;0.0020;0.0160;0.0040;0.0040;0.0020
P_1000;0.0040;0.0020;0.0020;0.0000;0.0030;0.0070;0.0080;0.0060;0.0080;0.0090;0.0040;0.0030;0.0070;0.0020;0.0030;0.0070;0.0040;0.0050;0.0010;0.0050;0.0060;0.0010;0.0080;0.0020;0.0020;0.0010
